{
  "$id": "https://gitlab.com/gitlab-org/security-products/license-management/blob/master/spec/fixtures/schema/v1.0.json",
  "type": "object",
  "required": [
    "licenses",
    "dependencies"
  ],
  "properties": {
    "licenses": {
      "type": "array",
      "items": {
        "type": "object",
        "required": [
          "name"
        ],
        "properties": {
          "name": {
            "type": "string"
          },
          "count": {
            "type": "number"
          }
        }
      }
    },
    "dependencies": {
      "type": "array",
      "items": {
        "type": "object",
        "required": [
          "license",
          "dependency"
        ],
        "properties": {
          "license": {
            "type": "object",
            "required": [
              "name"
            ],
            "properties": {
              "name": {
                "type": "string"
              }
            }
          },
          "dependency": {
            "type": "object",
            "required": [
              "name",
              "description"
            ],
            "properties": {
              "name": {
                "type": "string"
              },
              "description": {
                "type": "string"
              },
              "paths": {
                "type": "array",
                "items": {
                  "type": "string"
                }
              }
            }
          }
        }
      }
    }
  },
  "additionalProperties": false
}
