{
  "version": "1.1",
  "licenses": [
    {
      "count": 36,
      "name": "MIT"
    },
    {
      "count": 18,
      "name": "New BSD"
    },
    {
      "count": 1,
      "name": "BSD-3-Clause-Attribution"
    },
    {
      "count": 1,
      "name": "Simplified BSD"
    }
  ],
  "dependencies": [
    {
      "licenses": [
        {
          "name": "MIT",
          "url": "http://opensource.org/licenses/mit-license"
        }
      ],
      "license": {
        "name": "MIT",
        "url": "http://opensource.org/licenses/mit-license"
      },
      "dependency": {
        "name": "classpreloader/classpreloader",
        "description": "",
        "pathes": [
          "."
        ]
      }
    },
    {
      "licenses": [
        {
          "name": "MIT",
          "url": "http://opensource.org/licenses/mit-license"
        }
      ],
      "license": {
        "name": "MIT",
        "url": "http://opensource.org/licenses/mit-license"
      },
      "dependency": {
        "name": "dnoegel/php-xdg-base-dir",
        "description": "",
        "pathes": [
          "."
        ]
      }
    },
    {
      "licenses": [
        {
          "name": "MIT",
          "url": "http://opensource.org/licenses/mit-license"
        }
      ],
      "license": {
        "name": "MIT",
        "url": "http://opensource.org/licenses/mit-license"
      },
      "dependency": {
        "name": "doctrine/inflector",
        "description": "",
        "pathes": [
          "."
        ]
      }
    },
    {
      "licenses": [
        {
          "name": "MIT",
          "url": "http://opensource.org/licenses/mit-license"
        }
      ],
      "license": {
        "name": "MIT",
        "url": "http://opensource.org/licenses/mit-license"
      },
      "dependency": {
        "name": "doctrine/instantiator",
        "description": "",
        "pathes": [
          "."
        ]
      }
    },
    {
      "licenses": [
        {
          "name": "Simplified BSD",
          "url": "http://opensource.org/licenses/bsd-license"
        }
      ],
      "license": {
        "name": "Simplified BSD",
        "url": "http://opensource.org/licenses/bsd-license"
      },
      "dependency": {
        "name": "jakub-onderka/php-console-color",
        "description": "",
        "pathes": [
          "."
        ]
      }
    },
    {
      "licenses": [
        {
          "name": "MIT",
          "url": "http://opensource.org/licenses/mit-license"
        }
      ],
      "license": {
        "name": "MIT",
        "url": "http://opensource.org/licenses/mit-license"
      },
      "dependency": {
        "name": "jakub-onderka/php-console-highlighter",
        "description": "",
        "pathes": [
          "."
        ]
      }
    },
    {
      "licenses": [
        {
          "name": "MIT",
          "url": "http://opensource.org/licenses/mit-license"
        }
      ],
      "license": {
        "name": "MIT",
        "url": "http://opensource.org/licenses/mit-license"
      },
      "dependency": {
        "name": "jeremeamia/SuperClosure",
        "description": "",
        "pathes": [
          "."
        ]
      }
    },
    {
      "licenses": [
        {
          "name": "MIT",
          "url": "http://opensource.org/licenses/mit-license"
        }
      ],
      "license": {
        "name": "MIT",
        "url": "http://opensource.org/licenses/mit-license"
      },
      "dependency": {
        "name": "laravel/framework",
        "description": "",
        "pathes": [
          "."
        ]
      }
    },
    {
      "licenses": [
        {
          "name": "MIT",
          "url": "http://opensource.org/licenses/mit-license"
        }
      ],
      "license": {
        "name": "MIT",
        "url": "http://opensource.org/licenses/mit-license"
      },
      "dependency": {
        "name": "league/flysystem",
        "description": "",
        "pathes": [
          "."
        ]
      }
    },
    {
      "licenses": [
        {
          "name": "MIT",
          "url": "http://opensource.org/licenses/mit-license"
        }
      ],
      "license": {
        "name": "MIT",
        "url": "http://opensource.org/licenses/mit-license"
      },
      "dependency": {
        "name": "monolog/monolog",
        "description": "",
        "pathes": [
          "."
        ]
      }
    },
    {
      "licenses": [
        {
          "name": "MIT",
          "url": "http://opensource.org/licenses/mit-license"
        }
      ],
      "license": {
        "name": "MIT",
        "url": "http://opensource.org/licenses/mit-license"
      },
      "dependency": {
        "name": "mtdowling/cron-expression",
        "description": "",
        "pathes": [
          "."
        ]
      }
    },
    {
      "licenses": [
        {
          "name": "MIT",
          "url": "http://opensource.org/licenses/mit-license"
        }
      ],
      "license": {
        "name": "MIT",
        "url": "http://opensource.org/licenses/mit-license"
      },
      "dependency": {
        "name": "myclabs/deep-copy",
        "description": "",
        "pathes": [
          "."
        ]
      }
    },
    {
      "licenses": [
        {
          "name": "MIT",
          "url": "http://opensource.org/licenses/mit-license"
        }
      ],
      "license": {
        "name": "MIT",
        "url": "http://opensource.org/licenses/mit-license"
      },
      "dependency": {
        "name": "nesbot/carbon",
        "description": "",
        "pathes": [
          "."
        ]
      }
    },
    {
      "licenses": [
        {
          "name": "New BSD",
          "url": "http://opensource.org/licenses/BSD-3-Clause"
        }
      ],
      "license": {
        "name": "New BSD",
        "url": "http://opensource.org/licenses/BSD-3-Clause"
      },
      "dependency": {
        "name": "nikic/php-parser",
        "description": "",
        "pathes": [
          "."
        ]
      }
    },
    {
      "licenses": [
        {
          "name": "MIT",
          "url": "http://opensource.org/licenses/mit-license"
        }
      ],
      "license": {
        "name": "MIT",
        "url": "http://opensource.org/licenses/mit-license"
      },
      "dependency": {
        "name": "paragonie/random_compat",
        "description": "",
        "pathes": [
          "."
        ]
      }
    },
    {
      "licenses": [
        {
          "name": "MIT",
          "url": "http://opensource.org/licenses/mit-license"
        }
      ],
      "license": {
        "name": "MIT",
        "url": "http://opensource.org/licenses/mit-license"
      },
      "dependency": {
        "name": "phpdocumentor/reflection-common",
        "description": "",
        "pathes": [
          "."
        ]
      }
    },
    {
      "licenses": [
        {
          "name": "MIT",
          "url": "http://opensource.org/licenses/mit-license"
        }
      ],
      "license": {
        "name": "MIT",
        "url": "http://opensource.org/licenses/mit-license"
      },
      "dependency": {
        "name": "phpdocumentor/reflection-docblock",
        "description": "",
        "pathes": [
          "."
        ]
      }
    },
    {
      "licenses": [
        {
          "name": "MIT",
          "url": "http://opensource.org/licenses/mit-license"
        }
      ],
      "license": {
        "name": "MIT",
        "url": "http://opensource.org/licenses/mit-license"
      },
      "dependency": {
        "name": "phpdocumentor/type-resolver",
        "description": "",
        "pathes": [
          "."
        ]
      }
    },
    {
      "licenses": [
        {
          "name": "MIT",
          "url": "http://opensource.org/licenses/mit-license"
        }
      ],
      "license": {
        "name": "MIT",
        "url": "http://opensource.org/licenses/mit-license"
      },
      "dependency": {
        "name": "phpspec/prophecy",
        "description": "",
        "pathes": [
          "."
        ]
      }
    },
    {
      "licenses": [
        {
          "name": "New BSD",
          "url": "http://opensource.org/licenses/BSD-3-Clause"
        }
      ],
      "license": {
        "name": "New BSD",
        "url": "http://opensource.org/licenses/BSD-3-Clause"
      },
      "dependency": {
        "name": "phpunit/php-code-coverage",
        "description": "",
        "pathes": [
          "."
        ]
      }
    },
    {
      "licenses": [
        {
          "name": "New BSD",
          "url": "http://opensource.org/licenses/BSD-3-Clause"
        }
      ],
      "license": {
        "name": "New BSD",
        "url": "http://opensource.org/licenses/BSD-3-Clause"
      },
      "dependency": {
        "name": "phpunit/php-file-iterator",
        "description": "",
        "pathes": [
          "."
        ]
      }
    },
    {
      "licenses": [
        {
          "name": "New BSD",
          "url": "http://opensource.org/licenses/BSD-3-Clause"
        }
      ],
      "license": {
        "name": "New BSD",
        "url": "http://opensource.org/licenses/BSD-3-Clause"
      },
      "dependency": {
        "name": "phpunit/php-text-template",
        "description": "",
        "pathes": [
          "."
        ]
      }
    },
    {
      "licenses": [
        {
          "name": "New BSD",
          "url": "http://opensource.org/licenses/BSD-3-Clause"
        }
      ],
      "license": {
        "name": "New BSD",
        "url": "http://opensource.org/licenses/BSD-3-Clause"
      },
      "dependency": {
        "name": "phpunit/php-timer",
        "description": "",
        "pathes": [
          "."
        ]
      }
    },
    {
      "licenses": [
        {
          "name": "New BSD",
          "url": "http://opensource.org/licenses/BSD-3-Clause"
        }
      ],
      "license": {
        "name": "New BSD",
        "url": "http://opensource.org/licenses/BSD-3-Clause"
      },
      "dependency": {
        "name": "phpunit/php-token-stream",
        "description": "",
        "pathes": [
          "."
        ]
      }
    },
    {
      "licenses": [
        {
          "name": "New BSD",
          "url": "http://opensource.org/licenses/BSD-3-Clause"
        }
      ],
      "license": {
        "name": "New BSD",
        "url": "http://opensource.org/licenses/BSD-3-Clause"
      },
      "dependency": {
        "name": "phpunit/phpunit",
        "description": "",
        "pathes": [
          "."
        ]
      }
    },
    {
      "licenses": [
        {
          "name": "New BSD",
          "url": "http://opensource.org/licenses/BSD-3-Clause"
        }
      ],
      "license": {
        "name": "New BSD",
        "url": "http://opensource.org/licenses/BSD-3-Clause"
      },
      "dependency": {
        "name": "phpunit/phpunit-mock-objects",
        "description": "",
        "pathes": [
          "."
        ]
      }
    },
    {
      "licenses": [
        {
          "name": "MIT",
          "url": "http://opensource.org/licenses/mit-license"
        }
      ],
      "license": {
        "name": "MIT",
        "url": "http://opensource.org/licenses/mit-license"
      },
      "dependency": {
        "name": "psr/log",
        "description": "",
        "pathes": [
          "."
        ]
      }
    },
    {
      "licenses": [
        {
          "name": "MIT",
          "url": "http://opensource.org/licenses/mit-license"
        }
      ],
      "license": {
        "name": "MIT",
        "url": "http://opensource.org/licenses/mit-license"
      },
      "dependency": {
        "name": "psy/psysh",
        "description": "",
        "pathes": [
          "."
        ]
      }
    },
    {
      "licenses": [
        {
          "name": "MIT",
          "url": "http://opensource.org/licenses/mit-license"
        }
      ],
      "license": {
        "name": "MIT",
        "url": "http://opensource.org/licenses/mit-license"
      },
      "dependency": {
        "name": "ramsey/uuid",
        "description": "",
        "pathes": [
          "."
        ]
      }
    },
    {
      "licenses": [
        {
          "name": "New BSD",
          "url": "http://opensource.org/licenses/BSD-3-Clause"
        }
      ],
      "license": {
        "name": "New BSD",
        "url": "http://opensource.org/licenses/BSD-3-Clause"
      },
      "dependency": {
        "name": "sebastian/code-unit-reverse-lookup",
        "description": "",
        "pathes": [
          "."
        ]
      }
    },
    {
      "licenses": [
        {
          "name": "New BSD",
          "url": "http://opensource.org/licenses/BSD-3-Clause"
        }
      ],
      "license": {
        "name": "New BSD",
        "url": "http://opensource.org/licenses/BSD-3-Clause"
      },
      "dependency": {
        "name": "sebastian/comparator",
        "description": "",
        "pathes": [
          "."
        ]
      }
    },
    {
      "licenses": [
        {
          "name": "New BSD",
          "url": "http://opensource.org/licenses/BSD-3-Clause"
        }
      ],
      "license": {
        "name": "New BSD",
        "url": "http://opensource.org/licenses/BSD-3-Clause"
      },
      "dependency": {
        "name": "sebastian/diff",
        "description": "",
        "pathes": [
          "."
        ]
      }
    },
    {
      "licenses": [
        {
          "name": "New BSD",
          "url": "http://opensource.org/licenses/BSD-3-Clause"
        }
      ],
      "license": {
        "name": "New BSD",
        "url": "http://opensource.org/licenses/BSD-3-Clause"
      },
      "dependency": {
        "name": "sebastian/environment",
        "description": "",
        "pathes": [
          "."
        ]
      }
    },
    {
      "licenses": [
        {
          "name": "New BSD",
          "url": "http://opensource.org/licenses/BSD-3-Clause"
        }
      ],
      "license": {
        "name": "New BSD",
        "url": "http://opensource.org/licenses/BSD-3-Clause"
      },
      "dependency": {
        "name": "sebastian/exporter",
        "description": "",
        "pathes": [
          "."
        ]
      }
    },
    {
      "licenses": [
        {
          "name": "New BSD",
          "url": "http://opensource.org/licenses/BSD-3-Clause"
        }
      ],
      "license": {
        "name": "New BSD",
        "url": "http://opensource.org/licenses/BSD-3-Clause"
      },
      "dependency": {
        "name": "sebastian/global-state",
        "description": "",
        "pathes": [
          "."
        ]
      }
    },
    {
      "licenses": [
        {
          "name": "New BSD",
          "url": "http://opensource.org/licenses/BSD-3-Clause"
        }
      ],
      "license": {
        "name": "New BSD",
        "url": "http://opensource.org/licenses/BSD-3-Clause"
      },
      "dependency": {
        "name": "sebastian/object-enumerator",
        "description": "",
        "pathes": [
          "."
        ]
      }
    },
    {
      "licenses": [
        {
          "name": "New BSD",
          "url": "http://opensource.org/licenses/BSD-3-Clause"
        }
      ],
      "license": {
        "name": "New BSD",
        "url": "http://opensource.org/licenses/BSD-3-Clause"
      },
      "dependency": {
        "name": "sebastian/recursion-context",
        "description": "",
        "pathes": [
          "."
        ]
      }
    },
    {
      "licenses": [
        {
          "name": "New BSD",
          "url": "http://opensource.org/licenses/BSD-3-Clause"
        }
      ],
      "license": {
        "name": "New BSD",
        "url": "http://opensource.org/licenses/BSD-3-Clause"
      },
      "dependency": {
        "name": "sebastian/resource-operations",
        "description": "",
        "pathes": [
          "."
        ]
      }
    },
    {
      "licenses": [
        {
          "name": "New BSD",
          "url": "http://opensource.org/licenses/BSD-3-Clause"
        }
      ],
      "license": {
        "name": "New BSD",
        "url": "http://opensource.org/licenses/BSD-3-Clause"
      },
      "dependency": {
        "name": "sebastian/version",
        "description": "",
        "pathes": [
          "."
        ]
      }
    },
    {
      "licenses": [
        {
          "name": "MIT",
          "url": "http://opensource.org/licenses/mit-license"
        }
      ],
      "license": {
        "name": "MIT",
        "url": "http://opensource.org/licenses/mit-license"
      },
      "dependency": {
        "name": "swiftmailer/swiftmailer",
        "description": "",
        "pathes": [
          "."
        ]
      }
    },
    {
      "licenses": [
        {
          "name": "MIT",
          "url": "http://opensource.org/licenses/mit-license"
        }
      ],
      "license": {
        "name": "MIT",
        "url": "http://opensource.org/licenses/mit-license"
      },
      "dependency": {
        "name": "symfony/console",
        "description": "",
        "pathes": [
          "."
        ]
      }
    },
    {
      "licenses": [
        {
          "name": "MIT",
          "url": "http://opensource.org/licenses/mit-license"
        }
      ],
      "license": {
        "name": "MIT",
        "url": "http://opensource.org/licenses/mit-license"
      },
      "dependency": {
        "name": "symfony/debug",
        "description": "",
        "pathes": [
          "."
        ]
      }
    },
    {
      "licenses": [
        {
          "name": "MIT",
          "url": "http://opensource.org/licenses/mit-license"
        }
      ],
      "license": {
        "name": "MIT",
        "url": "http://opensource.org/licenses/mit-license"
      },
      "dependency": {
        "name": "symfony/event-dispatcher",
        "description": "",
        "pathes": [
          "."
        ]
      }
    },
    {
      "licenses": [
        {
          "name": "MIT",
          "url": "http://opensource.org/licenses/mit-license"
        }
      ],
      "license": {
        "name": "MIT",
        "url": "http://opensource.org/licenses/mit-license"
      },
      "dependency": {
        "name": "symfony/finder",
        "description": "",
        "pathes": [
          "."
        ]
      }
    },
    {
      "licenses": [
        {
          "name": "MIT",
          "url": "http://opensource.org/licenses/mit-license"
        }
      ],
      "license": {
        "name": "MIT",
        "url": "http://opensource.org/licenses/mit-license"
      },
      "dependency": {
        "name": "symfony/http-foundation",
        "description": "",
        "pathes": [
          "."
        ]
      }
    },
    {
      "licenses": [
        {
          "name": "MIT",
          "url": "http://opensource.org/licenses/mit-license"
        }
      ],
      "license": {
        "name": "MIT",
        "url": "http://opensource.org/licenses/mit-license"
      },
      "dependency": {
        "name": "symfony/http-kernel",
        "description": "",
        "pathes": [
          "."
        ]
      }
    },
    {
      "licenses": [
        {
          "name": "MIT",
          "url": "http://opensource.org/licenses/mit-license"
        }
      ],
      "license": {
        "name": "MIT",
        "url": "http://opensource.org/licenses/mit-license"
      },
      "dependency": {
        "name": "symfony/polyfill-mbstring",
        "description": "",
        "pathes": [
          "."
        ]
      }
    },
    {
      "licenses": [
        {
          "name": "MIT",
          "url": "http://opensource.org/licenses/mit-license"
        }
      ],
      "license": {
        "name": "MIT",
        "url": "http://opensource.org/licenses/mit-license"
      },
      "dependency": {
        "name": "symfony/polyfill-php56",
        "description": "",
        "pathes": [
          "."
        ]
      }
    },
    {
      "licenses": [
        {
          "name": "MIT",
          "url": "http://opensource.org/licenses/mit-license"
        }
      ],
      "license": {
        "name": "MIT",
        "url": "http://opensource.org/licenses/mit-license"
      },
      "dependency": {
        "name": "symfony/polyfill-util",
        "description": "",
        "pathes": [
          "."
        ]
      }
    },
    {
      "licenses": [
        {
          "name": "MIT",
          "url": "http://opensource.org/licenses/mit-license"
        }
      ],
      "license": {
        "name": "MIT",
        "url": "http://opensource.org/licenses/mit-license"
      },
      "dependency": {
        "name": "symfony/process",
        "description": "",
        "pathes": [
          "."
        ]
      }
    },
    {
      "licenses": [
        {
          "name": "MIT",
          "url": "http://opensource.org/licenses/mit-license"
        }
      ],
      "license": {
        "name": "MIT",
        "url": "http://opensource.org/licenses/mit-license"
      },
      "dependency": {
        "name": "symfony/routing",
        "description": "",
        "pathes": [
          "."
        ]
      }
    },
    {
      "licenses": [
        {
          "name": "MIT",
          "url": "http://opensource.org/licenses/mit-license"
        }
      ],
      "license": {
        "name": "MIT",
        "url": "http://opensource.org/licenses/mit-license"
      },
      "dependency": {
        "name": "symfony/translation",
        "description": "",
        "pathes": [
          "."
        ]
      }
    },
    {
      "licenses": [
        {
          "name": "MIT",
          "url": "http://opensource.org/licenses/mit-license"
        }
      ],
      "license": {
        "name": "MIT",
        "url": "http://opensource.org/licenses/mit-license"
      },
      "dependency": {
        "name": "symfony/var-dumper",
        "description": "",
        "pathes": [
          "."
        ]
      }
    },
    {
      "licenses": [
        {
          "name": "MIT",
          "url": "http://opensource.org/licenses/mit-license"
        }
      ],
      "license": {
        "name": "MIT",
        "url": "http://opensource.org/licenses/mit-license"
      },
      "dependency": {
        "name": "symfony/yaml",
        "description": "",
        "pathes": [
          "."
        ]
      }
    },
    {
      "licenses": [
        {
          "name": "BSD-3-Clause-Attribution",
          "url": ""
        }
      ],
      "license": {
        "name": "BSD-3-Clause-Attribution"
      },
      "dependency": {
        "name": "vlucas/phpdotenv",
        "description": "",
        "pathes": [
          "."
        ]
      }
    },
    {
      "licenses": [
        {
          "name": "MIT",
          "url": "http://opensource.org/licenses/mit-license"
        }
      ],
      "license": {
        "name": "MIT",
        "url": "http://opensource.org/licenses/mit-license"
      },
      "dependency": {
        "name": "webmozart/assert",
        "description": "",
        "pathes": [
          "."
        ]
      }
    }
  ]
}
