{
  "version": "2.0",
  "licenses": [
    {
      "id": "MIT",
      "name": "MIT License",
      "url": "https://opensource.org/licenses/MIT",
      "count": 8
    },
    {
      "id": "ISC",
      "name": "ISC License",
      "url": "https://opensource.org/licenses/ISC",
      "count": 2
    },
    {
      "id": "Apache-2.0",
      "name": "Apache License 2.0",
      "url": "https://opensource.org/licenses/Apache-2.0",
      "count": 1
    },
    {
      "id": "BSD-3-Clause",
      "name": "BSD 3-Clause \"New\" or \"Revised\" License",
      "url": "https://opensource.org/licenses/BSD-3-Clause",
      "count": 1
    },
    {
      "id": "unknown",
      "name": "unknown",
      "url": "",
      "count": 1
    }
  ],
  "dependencies": [
    {
      "name": "cli",
      "url": "https://github.com/npm/cli",
      "description": "",
      "paths": [
        "."
      ],
      "licenses": [
        "Apache-2.0",
        "BSD-3-Clause",
        "ISC",
        "MIT"
      ]
    },
    {
      "name": "ev-emitter",
      "url": "https://github.com/metafizzy/ev-emitter",
      "description": "lil' event emitter",
      "paths": [
        "."
      ],
      "licenses": [
        "MIT"
      ]
    },
    {
      "name": "fizzy-ui-utils",
      "url": "https://github.com/metafizzy/fizzy-ui-utils",
      "description": "UI utilities",
      "paths": [
        "."
      ],
      "licenses": [
        "MIT"
      ]
    },
    {
      "name": "get-size",
      "url": "https://github.com/desandro/get-size",
      "description": "measures element size",
      "paths": [
        "."
      ],
      "licenses": [
        "MIT"
      ]
    },
    {
      "name": "jquery",
      "url": "https://github.com/jquery/jquery-dist",
      "description": "",
      "paths": [
        "."
      ],
      "licenses": [
        "MIT"
      ]
    },
    {
      "name": "js-bower",
      "url": "",
      "description": "",
      "paths": [
        "."
      ],
      "licenses": [
        "ISC"
      ]
    },
    {
      "name": "masonry-layout",
      "url": "https://masonry.desandro.com",
      "description": "Cascading grid layout library",
      "paths": [
        "."
      ],
      "licenses": [
        "MIT"
      ]
    },
    {
      "name": "matches-selector",
      "url": "https://github.com/desandro/matches-selector",
      "description": "matches/matchesSelector helper",
      "paths": [
        "."
      ],
      "licenses": [
        "MIT"
      ]
    },
    {
      "name": "outlayer",
      "url": "https://github.com/metafizzy/outlayer",
      "description": "the brains and guts of a layout library",
      "paths": [
        "."
      ],
      "licenses": [
        "MIT"
      ]
    },
    {
      "name": "stimulus.umd",
      "url": "",
      "description": "",
      "paths": [
        "."
      ],
      "licenses": [
        "unknown"
      ]
    }
  ]
}